[{
    "_id":1,
    "tailNumber":"AA5321",
    "numSeats":150,
    "fuelCapacity":10
},
{
    "_id":2,
    "tailNumber":"AA321",
    "numSeats":150,
    "fuelCapacity":20
},
{
    "_id":3,
    "tailNumber":"AA3521",
    "numSeats":150,
    "fuelCapacity":30
},
{
    "_id":4,
    "tailNumber":"AA2351",
    "numSeats":150,
    "fuelCapacity":40
},
{
    "_id":5,
    "tailNumber":"AA1354",
    "numSeats":150,
    "fuelCapacity":50
},
{
    "_id":6,
    "tailNumber":"AA1778",
    "numSeats":150,
    "fuelCapacity":60
}



]